plot "/tmp/a.dat" with lines
pause mouse
plot \
     "/tmp/b.dat" using 3 title "result" with lines, \
     "/tmp/b.dat" using 1 title "decision" with lines, \
     "/tmp/b.dat" using 2 title "mavg" with lines
pause mouse
